{
"mapInfo":{
"name":"Mall_of_the_Emirates"
,"dataDate":"2016-11-08_18-31-53.850_UTC"
,"venueId":"d360f93f-75c5-4a07-8634-2d7c63e48e3f"
,"mapId":"daae2106-0b87-48d8-8dea-789148723f31"
,"mapVersionId":"5bc7f6bd-4b60-412e-9e4f-9ed2e1fcfa4a"
,"versionName":"20161108_1831"}
,"floors":[
{
"floorName":"Ground Floor"
,"floorNr":0
,"bitmapFilename":"Mall_of_the_Emirates_0.png"
,"bitmapLocation":{"latitude":25.120105629057992,"longitude":55.1960425761365}
,"bitmapOffset":{"x":0.0,"y":0.0}
,"bitmapOrientation":-5.589424393081288
,"pixelsPerMeter":2.2593912206480478
,"xMaxPixels":1907
,"yMaxPixels":1347
}
,{
"floorName":"First Floor"
,"floorNr":1
,"bitmapFilename":"Mall_of_the_Emirates_1.png"
,"bitmapLocation":{"latitude":25.12008413588354,"longitude":55.19609856507243}
,"bitmapOffset":{"x":0.0,"y":0.0}
,"bitmapOrientation":-5.435614884429981
,"pixelsPerMeter":2.2591405546716428
,"xMaxPixels":1907
,"yMaxPixels":1347
}
,{
"floorName":"Second Floor"
,"floorNr":2
,"bitmapFilename":"Mall_of_the_Emirates_2.png"
,"bitmapLocation":{"latitude":25.120079112346552,"longitude":55.195902585983276}
,"bitmapOffset":{"x":0.0,"y":0.0}
,"bitmapOrientation":-5.459553532833596
,"pixelsPerMeter":2.2573989344639984
,"xMaxPixels":1907
,"yMaxPixels":1347
}]}